<svg viewBox="0 0 50 45" version="1.1" xmlns="http://www.w3.org/2000/svg" xmlns:xlink="http://www.w3.org/1999/xlink">
    <title>beautyxsummit</title>
    <g id="Page-1" stroke="none" stroke-width="1" fill="none" fill-rule="evenodd">
        <polygon id="beautyxsummit" fill="#4B23F9" points="47.5585107 0.408203125 31.0738064 16.0676499 44.2654813 0.408203125 43.2449473 0.408203125 28.9201361 17.412953 39.9569554 0.408203125 39.1426618 0.408203125 27.8281885 17.8408424 36.1930699 0.408203125 35.5432352 0.408203125 26.8663264 18.4915661 32.6801694 0.408203125 32.1853112 0.408203125 32.1503452 0.462726423 26.1433001 19.1464383 28.3020078 6.49732949 27.7609234 7.34510751 25.6253287 19.8611676 25.6253287 10.6941418 25.4303487 10.9999464 25.2350723 10.6941418 25.2350723 19.8638345 23.0988851 7.3436259 22.5578006 6.49644052 24.717101 19.1464383 18.7094632 0.460652167 18.6756825 0.408203125 18.1799353 0.408203125 23.9940746 18.4915661 15.3171659 0.408203125 14.6676275 0.408203125 23.0325089 17.8408424 11.7177392 0.408203125 10.9034456 0.408203125 21.9405613 17.412953 7.61575003 0.408203125 6.5949198 0.408203125 19.786891 16.0676499 3.30159407 0.408203125 1.75745871 0.408203125 20.6657829 18.370074 7.78287579 9.39950982 9.0149838 11.2085573 23.0416949 20.9753394 13.2129814 17.3720605 13.7792533 18.2029482 24.0471163 21.96713 16.3427373 21.96713 16.475786 22.1624064 16.3403667 22.3573864 24.0480053 22.3573864 13.7066543 26.1485336 13.1258627 26.9850514 23.0428801 23.3497697 8.72814384 33.3168657 7.44892059 35.1591012 20.661338 25.9588873 0.822265625 44.8046875 2.36640098 44.8046875 19.7800756 28.262793 5.84522445 44.8046875 6.86575836 44.8046875 21.9464877 26.9029701 10.3273951 44.8046875 11.1413924 44.8046875 23.028953 26.4898968 14.2403307 44.8046875 14.8898692 44.8046875 23.9949636 25.8293945 17.8939843 44.8046875 18.4063256 44.8046875 24.7203605 25.1680032 22.4777936 38.3069327 23.0369537 37.351886 25.2350723 24.4686826 25.2350723 33.5951123 25.4303487 33.2614534 25.6253287 33.5951123 25.6253287 24.4710532 27.823151 37.3509971 28.3823112 38.3060438 26.1406332 25.1680032 32.4537792 44.8046875 32.9664167 44.8046875 26.8654375 25.8293945 35.9699393 44.8046875 36.6194777 44.8046875 27.8317444 26.4898968 39.7190086 44.8046875 40.5330059 44.8046875 28.9139133 26.9029701 43.9943464 44.8046875 45.0151766 44.8046875 31.0803254 28.262793 48.4940001 44.8046875 50.0381354 44.8046875 30.199063 25.9588873 43.4437796 35.1810291 42.16426 33.3393862 27.8175209 23.3497697 37.7564662 26.9930521 37.1756746 26.1565343 26.8123958 22.3573864 34.5366284 22.3573864 34.4012091 22.1624064 34.5342578 21.96713 26.8138774 21.96713 37.1033719 18.1949475 37.6693475 17.3637635 27.8187062 20.9753394 41.8771237 11.1863331 43.1092317 9.37758197 30.1943219 18.370074 49.1032387 0.408203125"></polygon>
    </g>
</svg>
