<svg class="bi-logo" width="37px" height="54px" viewBox="0 0 31 45" version="1.1" xmlns="http://www.w3.org/2000/svg" xmlns:xlink="http://www.w3.org/1999/xlink">
    <!-- Generator: Sketch 45.2 (43514) - http://www.bohemiancoding.com/sketch -->
    <title>Fill 26</title>
    <desc>Created with Sketch.</desc>
    <defs>
        <linearGradient x1="31.4528324%" y1="109.48275%" x2="119.632608%" y2="-26.0346468%" id="logo-gradient">
            <stop stop-color="#4B23F9" offset="0%"></stop>
            <stop offset="0%" stop-color="#4B23F9">
                <animate attributeName="stop-color" values="#4B23F9; #FCAFC5; #4B23F9" dur="8s" repeatCount="indefinite">
                </animate>
            </stop>
            <stop offset="100%" stop-color="#FCAFC5">
                <animate attributeName="stop-color" values="#FCAFC5; #874FF3; #FCAFC5" dur="8s" repeatCount="indefinite">
                </animate>
            </stop>
        </linearGradient>
        <path d="M18.0901175,18.4220304 L18.0901175,19.6936092 C24.1701451,19.7784955 29.0753006,24.8270836 29.0753006,30.8934492 C29.0753006,37.0121184 24.6534623,42.1241569 18.5245888,41.9723905 C18.5245888,41.9723905 13.9836351,41.8291986 13.8362405,37.2642049 C13.7471182,34.5075454 13.8619489,26.749457 13.9339323,22.5986052 L13.9339323,18.9647879 L13.953642,18.9647879 L13.953642,10.1657711 L13.9133656,9.60243512 C13.9133656,4.31976678 9.65777471,0.0402995313 4.37727713,0 L0,0 L0,1.18497771 L4.29672426,1.18497771 L4.29672426,30.6164971 L4.33700069,31.1789756 C4.33700069,31.7620327 4.37727713,32.3845318 4.49724948,32.9873099 L4.49724948,33.0276095 C4.81860401,36.3819024 6.4245197,39.3752144 8.77340705,41.5248085 C11.1428611,43.6949811 14.2749965,45 17.7087768,45 C25.0365169,45 31,39.0339545 31,31.7011547 C31,24.5089745 25.2378991,18.6226706 18.0901175,18.4220304" id="path-2"></path>
    </defs>
    <g id="Navigation" stroke="none" stroke-width="1" fill="none" fill-rule="evenodd">
        <g id="Home---Initial-View" transform="translate(-701.000000, -49.000000)">
            <g id="Navigation" transform="translate(100.000000, 49.000000)">
                <g id="Logo-Stacked" transform="translate(516.000000, 0.000000)">
                    <g id="Icon" transform="translate(85.000000, 0.000000)">
                        <mask id="mask-3" fill="white">
                            <use xlink:href="#path-2"></use>
                        </mask>
                        <use id="GradientFill" fill="url(#logo-gradient)" xlink:href="#path-2"></use>
                    </g>
                </g>
            </g>
        </g>
    </g>
</svg>
