<?xml version="1.0" encoding="UTF-8" standalone="no"?>
<svg width="301px" height="19px" viewBox="0 0 301 19" version="1.1" xmlns="http://www.w3.org/2000/svg" xmlns:xlink="http://www.w3.org/1999/xlink" xmlns:sketch="http://www.bohemiancoding.com/sketch/ns">
    <!-- Generator: Sketch 3.2.2 (9983) - http://www.bohemiancoding.com/sketch -->
    <title>bi-logo</title>
    <desc>Created with Sketch.</desc>
    <defs>
        <linearGradient x1="-82%" y1="102.6%" x2="19.1716%" y2="102.6%" id="linearGradient-1">
            <stop stop-color="#008DCF" offset="0%"></stop>
            <stop stop-color="#CB64A5" offset="100%"></stop>
        </linearGradient>
        <linearGradient x1="-10.5263158%" y1="50%" x2="3184.36632%" y2="50%" id="linearGradient-2">
            <stop stop-color="#008DCF" offset="0%"></stop>
            <stop stop-color="#CB64A5" offset="100%"></stop>
        </linearGradient>
        <linearGradient x1="-202.272727%" y1="50%" x2="3246.75909%" y2="50%" id="linearGradient-3">
            <stop stop-color="#008DCF" offset="0%"></stop>
            <stop stop-color="#CB64A5" offset="100%"></stop>
        </linearGradient>
        <linearGradient x1="-82%" y1="102.483333%" x2="19.1716%" y2="102.483333%" id="linearGradient-4">
            <stop stop-color="#008DCF" offset="0%"></stop>
            <stop stop-color="#CB64A5" offset="100%"></stop>
        </linearGradient>
        <linearGradient x1="-206.369427%" y1="50%" x2="1726.84586%" y2="50%" id="linearGradient-5">
            <stop stop-color="#008DCF" offset="0%"></stop>
            <stop stop-color="#CB64A5" offset="100%"></stop>
        </linearGradient>
        <linearGradient x1="-82%" y1="102.666667%" x2="19.1716%" y2="102.666667%" id="linearGradient-6">
            <stop stop-color="#008DCF" offset="0%"></stop>
            <stop stop-color="#CB64A5" offset="100%"></stop>
        </linearGradient>
        <linearGradient x1="-450.833333%" y1="50%" x2="2078.45667%" y2="50%" id="linearGradient-7">
            <stop stop-color="#008DCF" offset="0%"></stop>
            <stop stop-color="#CB64A5" offset="100%"></stop>
        </linearGradient>
        <linearGradient x1="-738.77551%" y1="50%" x2="2358.31429%" y2="50%" id="linearGradient-8">
            <stop stop-color="#008DCF" offset="0%"></stop>
            <stop stop-color="#CB64A5" offset="100%"></stop>
        </linearGradient>
        <linearGradient x1="-685.826772%" y1="50%" x2="1704.05354%" y2="50%" id="linearGradient-9">
            <stop stop-color="#008DCF" offset="0%"></stop>
            <stop stop-color="#CB64A5" offset="100%"></stop>
        </linearGradient>
        <linearGradient x1="-3659.375%" y1="50%" x2="5825.4625%" y2="50%" id="linearGradient-10">
            <stop stop-color="#008DCF" offset="0%"></stop>
            <stop stop-color="#CB64A5" offset="100%"></stop>
        </linearGradient>
        <linearGradient x1="-82%" y1="102.583333%" x2="19.1716%" y2="102.583333%" id="linearGradient-11">
            <stop stop-color="#008DCF" offset="0%"></stop>
            <stop stop-color="#CB64A5" offset="100%"></stop>
        </linearGradient>
        <linearGradient x1="-898.591549%" y1="50%" x2="1238.83662%" y2="50%" id="linearGradient-12">
            <stop stop-color="#008DCF" offset="0%"></stop>
            <stop stop-color="#CB64A5" offset="100%"></stop>
        </linearGradient>
        <linearGradient x1="-1202.41935%" y1="50%" x2="1245.28065%" y2="50%" id="linearGradient-13">
            <stop stop-color="#008DCF" offset="0%"></stop>
            <stop stop-color="#CB64A5" offset="100%"></stop>
        </linearGradient>
        <linearGradient x1="-1977.64706%" y1="50%" x2="1593.11529%" y2="50%" id="linearGradient-14">
            <stop stop-color="#008DCF" offset="0%"></stop>
            <stop stop-color="#CB64A5" offset="100%"></stop>
        </linearGradient>
        <linearGradient x1="-1837%" y1="50%" x2="1198.148%" y2="50%" id="linearGradient-15">
            <stop stop-color="#008DCF" offset="0%"></stop>
            <stop stop-color="#CB64A5" offset="100%"></stop>
        </linearGradient>
        <linearGradient x1="-2355.29412%" y1="50%" x2="1215.46824%" y2="50%" id="linearGradient-16">
            <stop stop-color="#008DCF" offset="0%"></stop>
            <stop stop-color="#CB64A5" offset="100%"></stop>
        </linearGradient>
        <linearGradient x1="-1530.49645%" y1="50%" x2="622.09078%" y2="50%" id="linearGradient-17">
            <stop stop-color="#008DCF" offset="0%"></stop>
            <stop stop-color="#CB64A5" offset="100%"></stop>
        </linearGradient>
        <linearGradient x1="-1912.90323%" y1="50%" x2="534.796774%" y2="50%" id="linearGradient-18">
            <stop stop-color="#008DCF" offset="0%"></stop>
            <stop stop-color="#CB64A5" offset="100%"></stop>
        </linearGradient>
        <linearGradient x1="-3051.19048%" y1="50%" x2="562.080952%" y2="50%" id="linearGradient-19">
            <stop stop-color="#008DCF" offset="0%"></stop>
            <stop stop-color="#CB64A5" offset="100%"></stop>
        </linearGradient>
        <linearGradient x1="-1928.36879%" y1="50%" x2="224.21844%" y2="50%" id="linearGradient-20">
            <stop stop-color="#008DCF" offset="0%"></stop>
            <stop stop-color="#CB64A5" offset="100%"></stop>
        </linearGradient>
        <linearGradient x1="-2981.63265%" y1="50%" x2="115.457143%" y2="50%" id="linearGradient-21">
            <stop stop-color="#008DCF" offset="0%"></stop>
            <stop stop-color="#CB64A5" offset="100%"></stop>
        </linearGradient>
    </defs>
    <g id="Page-1" stroke="none" stroke-width="1" fill="none" fill-rule="evenodd" sketch:type="MSPage">
        <g id="bi-logo" sketch:type="MSLayerGroup">
            <g id="SVGID_3_-link" transform="translate(0.000000, 1.000000)" fill="url(#linearGradient-2)" sketch:type="MSShapeGroup">
                <path d="M2.1,9.5 L3.4,9.5 C5.2,9.5 7.6,10 7.6,12.3 C7.6,14.6 5.6,15.2 3.7,15.2 L2.1,15.2 L2.1,9.5 L2.1,9.5 Z M2.1,2.4 L2.7,2.4 C4.6,2.4 6.2,2.8 6.2,5.1 C6.2,7.4 4.6,7.8 2.7,7.8 L2.2,7.8 L2.2,2.4 L2.1,2.4 L2.1,2.4 Z M0,0.6 L0,17 L3.8,17 C6.7,17 9.5,15.7 9.5,12.4 C9.5,10.5 8.2,8.6 6.2,8.3 L6.2,8.3 C7.3,7.8 8,6.4 8,5.2 C8,1.5 5.1,0.7 2,0.7 L0,0.6 L0,0.6 Z" id="SVGID_3_"></path>
            </g>
            <g id="SVGID_6_-link" transform="translate(16.000000, 1.000000)" fill="url(#linearGradient-3)" sketch:type="MSShapeGroup">
                <path d="M0.8,0.6 L0.8,17 L9.6,17 L9.6,15.1 L2.9,15.1 L2.9,8.9 L9.4,8.9 L9.4,7.1 L2.9,7.1 L2.9,2.5 L9.6,2.5 L9.6,0.6 L0.8,0.6 Z" id="SVGID_6_"></path>
            </g>
            <g id="SVGID_9_-link" transform="translate(31.000000, 0.000000)" fill="url(#linearGradient-5)" sketch:type="MSShapeGroup">
                <path d="M8.2,5.4 L11.1,12 L5.3,12 L8.2,5.4 L8.2,5.4 Z M0.4,18 L2.6,18 L4.5,13.9 L12,13.9 L13.9,18 L16.1,18 L8.3,0.9 L0.4,18 L0.4,18 Z" id="SVGID_9_"></path>
            </g>
            <g id="SVGID_12_-link" transform="translate(53.000000, 1.000000)" fill="url(#linearGradient-7)" sketch:type="MSShapeGroup">
                <path d="M10.1,0.6 L10.1,10.3 C10.1,13 9.3,15.4 6.1,15.4 C3,15.4 2.1,12.9 2.1,10.3 L2.1,0.6 L0.1,0.6 L0.1,11 C0.1,14.6 2.3,17.4 6.1,17.4 C9.9,17.4 12.1,14.6 12.1,11 L12.1,0.6 L10.1,0.6 L10.1,0.6 Z" id="SVGID_12_"></path>
            </g>
            <g id="SVGID_15_-link" transform="translate(71.000000, 1.000000)" fill="url(#linearGradient-8)" sketch:type="MSShapeGroup">
                <path d="M0.4,0.6 L0.4,2.5 L4.3,2.5 L4.3,17 L6.3,17 L6.3,2.5 L10.2,2.5 L10.2,0.6 L0.4,0.6 Z" id="SVGID_15_"></path>
            </g>
            <g id="SVGID_18_-link" transform="translate(86.000000, 1.000000)" fill="url(#linearGradient-9)" sketch:type="MSShapeGroup">
                <path d="M10.5,0.6 L6.5,7.6 L2.5,0.6 L0.1,0.6 L5.5,9.9 L5.5,17 L7.5,17 L7.5,9.9 L12.8,0.6 L10.5,0.6 Z" id="SVGID_18_"></path>
            </g>
            <g id="SVGID_21_-link" transform="translate(116.000000, 1.000000)" fill="url(#linearGradient-10)" sketch:type="MSShapeGroup">
                <rect id="SVGID_21_" x="0.1" y="0.6" width="3.2" height="16.4"></rect>
            </g>
            <g id="SVGID_24_-link" transform="translate(126.000000, 1.000000)" fill="url(#linearGradient-12)" sketch:type="MSShapeGroup">
                <path d="M0.6,0.2 L0.6,17 L3.8,17 L3.8,5.9 L3.9,5.9 L12.5,17.3 L14.8,17.3 L14.8,0.6 L11.6,0.6 L11.6,11.6 L2.9,0.2 L0.6,0.2 Z" id="SVGID_24_"></path>
            </g>
            <g id="SVGID_27_-link" transform="translate(148.000000, 1.000000)" fill="url(#linearGradient-13)" sketch:type="MSShapeGroup">
                <path d="M3.3,3.4 L3.8,3.4 C7.4,3.4 9.3,5.2 9.3,8.8 C9.3,12 7.8,14.2 3.8,14.2 L3.3,14.2 L3.3,3.4 L3.3,3.4 Z M0.1,0.6 L0.1,17 L4.6,17 C9.3,17 12.5,13.4 12.5,8.8 C12.5,4.1 9.3,0.6 4.6,0.6 L0.1,0.6 L0.1,0.6 Z" id="SVGID_27_"></path>
            </g>
            <g id="SVGID_30_-link" transform="translate(167.000000, 1.000000)" fill="url(#linearGradient-14)" sketch:type="MSShapeGroup">
                <path d="M0.1,0.6 L0.1,17 L8.6,17 L8.6,14.2 L3.3,14.2 L3.3,9.8 L8.4,9.8 L8.4,7 L3.3,7 L3.3,3.4 L8.6,3.4 L8.6,0.6 L0.1,0.6 Z" id="SVGID_30_"></path>
            </g>
            <g id="SVGID_33_-link" transform="translate(182.000000, 1.000000)" fill="url(#linearGradient-15)" sketch:type="MSShapeGroup">
                <path d="M3.9,3.3 L4.5,3.3 C6.3,3.3 7.5,3.6 7.5,5.7 C7.5,7.8 6.5,8.2 4.6,8.2 L3.9,8.2 L3.9,3.3 L3.9,3.3 Z M0.7,0.6 L0.7,17 L3.9,17 L3.9,10.9 L5.5,10.9 C8.8,10.9 10.7,9.2 10.7,5.7 C10.7,2 8.5,0.6 5,0.6 L0.7,0.6 L0.7,0.6 Z" id="SVGID_33_"></path>
            </g>
            <g id="SVGID_36_-link" transform="translate(199.000000, 1.000000)" fill="url(#linearGradient-16)" sketch:type="MSShapeGroup">
                <path d="M0.2,0.6 L0.2,17 L8.7,17 L8.7,14.2 L3.4,14.2 L3.4,9.8 L8.5,9.8 L8.5,7 L3.4,7 L3.4,3.4 L8.7,3.4 L8.7,0.6 L0.2,0.6 Z" id="SVGID_36_"></path>
            </g>
            <g id="SVGID_39_-link" transform="translate(214.000000, 1.000000)" fill="url(#linearGradient-17)" sketch:type="MSShapeGroup">
                <path d="M0.8,0.2 L0.8,17 L4,17 L4,5.9 L12.6,17.3 L14.9,17.3 L14.9,0.6 L11.7,0.6 L11.7,11.6 L3.1,0.2 L0.8,0.2 Z" id="SVGID_39_"></path>
            </g>
            <g id="SVGID_42_-link" transform="translate(236.000000, 1.000000)" fill="url(#linearGradient-18)" sketch:type="MSShapeGroup">
                <path d="M3.4,3.4 L3.9,3.4 C7.5,3.4 9.4,5.2 9.4,8.8 C9.4,12 7.9,14.2 3.9,14.2 L3.4,14.2 L3.4,3.4 L3.4,3.4 Z M0.2,0.6 L0.2,17 L4.7,17 C9.4,17 12.6,13.4 12.6,8.8 C12.6,4.1 9.4,0.6 4.7,0.6 L0.2,0.6 L0.2,0.6 Z" id="SVGID_42_"></path>
            </g>
            <g id="SVGID_45_-link" transform="translate(255.000000, 1.000000)" fill="url(#linearGradient-19)" sketch:type="MSShapeGroup">
                <path d="M0.3,0.6 L0.3,17 L8.7,17 L8.7,14.2 L3.5,14.2 L3.5,9.8 L8.5,9.8 L8.5,7 L3.5,7 L3.5,3.4 L8.7,3.4 L8.7,0.6 L0.3,0.6 Z" id="SVGID_45_"></path>
            </g>
            <g id="SVGID_48_-link" transform="translate(270.000000, 1.000000)" fill="url(#linearGradient-20)" sketch:type="MSShapeGroup">
                <path d="M0.9,0.2 L0.9,17 L4.1,17 L4.1,5.9 L12.7,17.3 L15,17.3 L15,0.6 L11.8,0.6 L11.8,11.6 L3.2,0.2 L0.9,0.2 Z" id="SVGID_48_"></path>
            </g>
            <g id="SVGID_51_-link" transform="translate(291.000000, 1.000000)" fill="url(#linearGradient-21)" sketch:type="MSShapeGroup">
                <path d="M0.2,0.6 L0.2,3.4 L3.5,3.4 L3.5,17 L6.7,17 L6.7,3.4 L10,3.4 L10,0.6 L0.2,0.6 Z" id="SVGID_51_"></path>
            </g>
        </g>
    </g>
</svg>